Timestamp,Tweet_Text,tag
Thu Oct 04 15:30:01 +0000 2018,"Happy /media_common/quotation_subject,/book/book_subject,/tv/tv_subject,/film/film_subject  Will lift another Time",Sports
Thu Oct 04 14:45:00 +0000 2018,"From http://dbpedia.org/ontology/City,http://dbpedia.org/ontology/Settlement,http://dbpedia.org/ontology/PopulatedPlace,http://dbpedia.org/ontology/Place,http://dbpedia.org/ontology/Location http://dbpedia.org/ontology/City,http://dbpedia.org/ontology/Settlement,http://dbpedia.org/ontology/PopulatedPlace,http://dbpedia.org/ontology/Place,http://dbpedia.org/ontology/Location  trophy tour",Sports
Thu Oct 04 14:05:00 +0000 2018,score run since day one,Sports
Thu Oct 04 13:06:15 +0000 2018,"Our  winner take real null last stop http://dbpedia.org/ontology/City,http://dbpedia.org/ontology/Settlement,http://dbpedia.org/ontology/PopulatedPlace,http://dbpedia.org/ontology/Place,http://dbpedia.org/ontology/Location ff",Sports
Thu Oct 04 12:45:00 +0000 2018,"7⃣8⃣ 2⃣4⃣ Pure destruction /media_common/quotation_subject,/book/book_subject,/tv/tv_subject,/film/film_subject boy uPhonecwc",Sports
Thu Oct 04 12:06:27 +0000 2018," coach http://dbpedia.org/ontology/Scientist,http://dbpedia.org/ontology/Person,http://dbpedia.org/ontology/Agent feel track achieve goal win cwcPhone",Sports
Thu Oct 04 10:13:59 +0000 2018,"Happy /media_common/quotation_subject,/book/book_subject,/tv/tv_subject,/film/film_subject",Sports
Thu Oct 04 08:45:00 +0000 2018,Is anything What catch ,Sports
Thu Oct 04 08:31:00 +0000 2018,"The journey continue http://dbpedia.org/ontology/City,http://dbpedia.org/ontology/Settlement,http://dbpedia.org/ontology/PopulatedPlace,http://dbpedia.org/ontology/Place,http://dbpedia.org/ontology/Location first stop today home Radians GU http://dbpedia.org/ontology/City,http://dbpedia.org/ontology/Settlement,http://dbpedia.org/ontology/PopulatedPlace,http://dbpedia.org/ontology/Place,http://dbpedia.org/ontology/Location World",Sports
Wed Oct 03 22:30:00 +0000 2018,He play  since June Number  focus attention make cwcPhone,Sports
Wed Oct 03 17:00:03 +0000 2018,Former  think  could good thing cwcPhone,Sports
Wed Oct 03 15:52:37 +0000 2018,He Is Back,Sports
Wed Oct 03 15:31:00 +0000 2018,Who first person think see kit,Sports
Wed Oct 03 14:30:00 +0000 2018,"This http://dbpedia.org/ontology/Band,http://dbpedia.org/ontology/Group,http://dbpedia.org/ontology/Organisation,http://dbpedia.org/ontology/Agent",Sports
Wed Oct 03 13:22:39 +0000 2018,Who first person think see kit,Sports
Wed Oct 03 12:34:29 +0000 2018,"Finally http://dbpedia.org/ontology/Band,http://dbpedia.org/ontology/Group,http://dbpedia.org/ontology/Organisation,http://dbpedia.org/ontology/Agent Time",Sports
Wed Oct 03 11:49:41 +0000 2018,"Next http://dbpedia.org/ontology/Band,http://dbpedia.org/ontology/Group,http://dbpedia.org/ontology/Organisation,http://dbpedia.org/ontology/Agent Time",Sports
Wed Oct 03 10:47:11 +0000 2018,"Who retro http://dbpedia.org/ontology/Band,http://dbpedia.org/ontology/Group,http://dbpedia.org/ontology/Organisation,http://dbpedia.org/ontology/Agent Time Let get start 󠁧󠁢󠁥󠁮󠁧󠁿",Sports
Wed Oct 03 09:31:03 +0000 2018,Who first person think see kit,Sports
Wed Oct 03 08:12:18 +0000 2018,Who first person think see kit,Sports
Wed Oct 03 01:00:00 +0000 2018,Next stop  trophy tour,Sports
Tue Oct 02 18:15:00 +0000 2018,Who first person think see kit,Sports
Tue Oct 02 16:10:00 +0000 2018,Who first person think see 󠁧󠁢󠁥󠁮󠁧󠁿 kit,Sports
Tue Oct 02 15:27:52 +0000 2018,Who first person think see kit,Sports
Tue Oct 02 14:50:00 +0000 2018,"http://dbpedia.org/ontology/Sport,http://dbpedia.org/ontology/Activity answer",Sports
Tue Oct 02 14:18:18 +0000 2018,Who first person think see kit,Sports
Tue Oct 02 12:53:55 +0000 2018,"Just casual 9⃣4⃣ /measurement_unit/distance_unit,/type/unit,/time_series/unit six",Sports
Tue Oct 02 10:58:12 +0000 2018,Who first person think see kit,Sports
Tue Oct 02 08:31:05 +0000 2018,Who first person think see kit,Sports
Tue Oct 02 00:15:00 +0000 2018,"Phone87 Phone9 Happy /media_common/quotation_subject,/book/book_subject,/tv/tv_subject,/film/film_subject former  twotime  winner",Sports
Mon Oct 01 19:15:00 +0000 2018,"A legend highest order great share  memories ICC http://dbpedia.org/ontology/Sport,http://dbpedia.org/ontology/Activity",Sports
Mon Oct 01 16:30:00 +0000 2018,There still chance buy ticket team cwcPhone,Sports
Mon Oct 01 14:18:31 +0000 2018,PhonePhone  debut PhonePhone No   monday motivation style,Sports
Mon Oct 01 13:28:20 +0000 2018,want cwcPhone,Sports
Mon Oct 01 09:13:01 +0000 2018,Will lift Time cwcPhone,Sports
Sun Sep 30 06:00:00 +0000 2018,start  series today Their last  clash come cwcPhone THIS,Sports
Sun Sep 30 02:31:00 +0000 2018,"2⃣3⃣7⃣ Happy /media_common/quotation_subject,/book/book_subject,/tv/tv_subject,/film/film_subject opener",Sports
Fri Sep 28 09:36:03 +0000 2018,Would like see cwcPhone He aim seal place Time  put,Sports
Thu Sep 27 16:19:51 +0000 2018,"REMAINING cwcPhone TICKETS ARE SELLING FAST Over Million ticket apply Less 2⃣0⃣,0⃣0⃣0⃣ current",Sports
Thu Sep 27 15:30:01 +0000 2018, first time break record fastest  5⃣0⃣ 2⃣0⃣ bad,Sports
Thu Sep 27 12:32:50 +0000 2018,The  trophy tour drive Nissan welcome Sri Lanka Watch video,Sports
Thu Sep 27 11:32:31 +0000 2018,Hi could DM us  address activate account,Sports
Thu Sep 27 10:34:32 +0000 2018,UPDATE PAKISTAN TICKETS HAVE NOW SOLD OUT Tickets still remain Afghanistan Bangladesh South Africa Srd,Sports
Thu Sep 27 09:00:00 +0000 2018,REMAINING cwcPhone TICKETS ARE NOW ON GENERAL SALE It  miss Tickets,Sports
Thu Sep 27 08:53:36 +0000 2018,Ahead General Sale open  urge fan buy ticket Official Ticketing Webs,Sports
Thu Sep 27 02:30:00 +0000 2018,"sixes fours 1⃣8⃣ Happy /media_common/quotation_subject,/book/book_subject,/tv/tv_subject,/film/film_subject man fastest-ever 5⃣0⃣ ",Sports
Wed Sep 26 08:30:00 +0000 2018,"Happy /media_common/quotation_subject,/book/book_subject,/tv/tv_subject,/film/film_subject No man  run PhonePhone top chart cwcPhone",Sports
Tue Sep 25 15:15:56 +0000 2018,The world greatest cricket celebration come classroom,Sports
Tue Sep 25 12:57:49 +0000 2018,ICC cwcPhone Official Statement Regarding Unofficial Ticket Resale please read,Sports
Tue Sep 25 11:35:00 +0000 2018,"856  run  centuries  title Happy /media_common/quotation_subject,/book/book_subject,/tv/tv_subject,/film/film_subject Hall Farmer",Sports
Tue Sep 25 11:05:53 +0000 2018,Hi Steve could DM us  address I check account,Sports
Tue Sep 25 10:49:06 +0000 2018,Day  trophy tour guess join us dil scoop,Sports
Tue Sep 25 09:33:52 +0000 2018,All remain ticket cwcPhone go General Sale  Time Timetember miss,Sports
Tue Sep 25 08:56:21 +0000 2018,Hi eligible able log today purchase ticket subject availability Thanks,Sports
Tue Sep 25 08:55:57 +0000 2018,Hi eligible able log today purchase ticket subject availability Thanks,Sports
Tue Sep 25 08:53:31 +0000 2018,Hi eligible able log purchase ticket subject availability Thanks,Sports
Tue Sep 25 08:53:12 +0000 2018,Hi eligible able log purchase ticket subject availability Thanks,Sports
Tue Sep 25 08:52:47 +0000 2018,Hi eligible able log purchase ticket subject availability Thanks,Sports
Tue Sep 25 08:52:26 +0000 2018,Hi eligible able log purchase ticket subject availability Thanks,Sports
Mon Sep 24 07:25:34 +0000 2018,"7-0-Phone-3 Happy /media_common/quotation_subject,/book/book_subject,/tv/tv_subject,/film/film_subject Hinder Amaranth whose http://dbpedia.org/ontology/Building,http://dbpedia.org/ontology/ArchitecturalStructure,http://dbpedia.org/ontology/Place,http://dbpedia.org/ontology/Locationets earn Player Match award win",Sports
Mon Sep 24 06:15:00 +0000 2018,"7-0-Phone-3 Happy /media_common/quotation_subject,/book/book_subject,/tv/tv_subject,/film/film_subject Hinder Amaranth whose http://dbpedia.org/ontology/Building,http://dbpedia.org/ontology/ArchitecturalStructure,http://dbpedia.org/ontology/Place,http://dbpedia.org/ontology/Locationets earn Player Match award win",Sports
Sun Sep 23 04:15:00 +0000 2018,"2⃣3⃣ catch stamp Happy /media_common/quotation_subject,/book/book_subject,/tv/tv_subject,/film/film_subject  winner Main Khan dismissals win",Sports
Sat Sep 22 07:30:00 +0000 2018,2⃣5⃣0⃣ DAYS TO GO All remain ticket go General Sale  Timetember miss,Sports
Sat Sep 22 00:00:01 +0000 2018,Langer If environment right play well reason welcome back help us win cwcPhone,Sports
Fri Sep 21 17:15:00 +0000 2018,"Happy /media_common/quotation_subject,/book/book_subject,/tv/tv_subject,/film/film_subject legend Sir Curtly Ambrose take 2⃣4⃣ http://dbpedia.org/ontology/Building,http://dbpedia.org/ontology/ArchitecturalStructure,http://dbpedia.org/ontology/Place,http://dbpedia.org/ontology/Locationets ",Sports
Fri Sep 21 16:00:02 +0000 2018,"9⃣9⃣ /measurement_unit/distance_unit,/type/unit,/time_series/units Yes ninety-nine /measurement_unit/distance_unit,/type/unit,/time_series/units Absurd hit",Sports
Fri Sep 21 14:29:34 +0000 2018,"http://dbpedia.org/ontology/Building,http://dbpedia.org/ontology/ArchitecturalStructure,http://dbpedia.org/ontology/Place,http://dbpedia.org/ontology/Locationets first  since July Number Do want see cwcPhone",Sports
Fri Sep 21 11:58:56 +0000 2018,Thanks welcome Sri Lanka The  trophy tour drive receive wonderful reception Cold,Sports
Fri Sep 21 11:01:00 +0000 2018,friday feel,Sports
Fri Sep 21 09:30:00 +0000 2018, fancy side chance cwcPhone,Sports
Fri Sep 21 08:56:23 +0000 2018,Special day students  trophy tour,Sports
Fri Sep 21 07:45:00 +0000 2018,"6⃣6⃣6⃣6⃣6⃣6⃣6⃣6⃣6⃣6⃣6⃣6⃣6⃣6⃣6⃣6⃣ Happy /media_common/quotation_subject,/book/book_subject,/tv/tv_subject,/film/film_subject Universe Boss",Sports
Fri Sep 21 05:16:00 +0000 2018,May Phone9 The date legends amp Rahu David put stagger 3⃣1⃣8⃣,Sports
Thu Sep 20 14:36:24 +0000 2018,The ICC Trophy arrive srilanka  trophy tour,Sports
Thu Sep 20 12:00:04 +0000 2018,"How many http://dbpedia.org/ontology/Building,http://dbpedia.org/ontology/ArchitecturalStructure,http://dbpedia.org/ontology/Place,http://dbpedia.org/ontology/Locationets take cwcPhone",Sports
Thu Sep 20 11:16:33 +0000 2018,"http://dbpedia.org/ontology/Sport,http://dbpedia.org/ontology/Activity  win captain Arjuna Ranatunga speak  trophy tour reception srilanka",Sports
Thu Sep 20 10:22:21 +0000 2018,"Quote tweet  think take http://dbpedia.org/ontology/Building,http://dbpedia.org/ontology/ArchitecturalStructure,http://dbpedia.org/ontology/Place,http://dbpedia.org/ontology/Locationets Phone",Sports
Thu Sep 20 09:30:00 +0000 2018,"Eat Sleep Take http://dbpedia.org/ontology/Building,http://dbpedia.org/ontology/ArchitecturalStructure,http://dbpedia.org/ontology/Place,http://dbpedia.org/ontology/Locationets Repeat Happy /media_common/quotation_subject,/book/book_subject,/tv/tv_subject,/film/film_subject leggy",Sports
Thu Sep 20 06:00:00 +0000 2018,Sri Lanka rule world ,Sports
Thu Sep 20 02:15:00 +0000 2018,Colombo  trophy tour drive come,Sports
Wed Sep 19 17:38:47 +0000 2018,"Fans enter http://dbpedia.org/ontology/Sport,http://dbpedia.org/ontology/Activity Family Ballot andor Company,/organization/organizationllot Phone0 unsuccessful apply",Sports
Wed Sep 19 14:48:07 +0000 2018, trophy tour,Sports
Wed Sep 19 13:01:32 +0000 2018,Hi Jennifer Please DM us  address Thanks,Sports
Wed Sep 19 10:30:00 +0000 2018,So many  memories What favourite,Sports
Wed Sep 19 09:14:07 +0000 2018,How far Afghanistan go cwcPhone,Sports
Wed Sep 19 08:32:12 +0000 2018,Odis 2⃣-1⃣ This 2⃣-0⃣ coach Phil Simmons feel tour Ireland give good,Sports
Wed Sep 19 06:15:00 +0000 2018,back The last time meet,Sports
Wed Sep 19 00:05:00 +0000 2018,squash match make heaven,Sports
Tue Sep 18 17:15:00 +0000 2018,From glorious scenery wtPhone winners excite children The  trophy tour drive saw,Sports
Tue Sep 18 16:18:11 +0000 2018,How many time go see celebration cwcPhone,Sports
Tue Sep 18 14:55:08 +0000 2018,Oh go let us watch,Sports
Tue Sep 18 12:00:00 +0000 2018,The  something every cricketer want play amp I want play Should recall cwcPhone,Sports
Tue Sep 18 10:29:50 +0000 2018,give  dream cwcPhone,Sports
Tue Sep 18 10:11:23 +0000 2018,Hi please DM us  address use enterot Thanks,Sports
Tue Sep 18 10:08:16 +0000 2018,Hi Please DM us  address use enterot Thanks,Sports
Tue Sep 18 08:15:20 +0000 2018,What thank Phone07  title squash course,Sports
Mon Sep 17 17:00:00 +0000 2018,Hospitality corporates individuals well Get one step ahead game amp guarantee,Sports
Mon Sep 17 15:47:29 +0000 2018,Another day another half-century This one bad either,Sports
Mon Sep 17 15:21:20 +0000 2018,Would pick India cwcPhone squad,Sports
Mon Sep 17 15:14:30 +0000 2018,You disappoint,Sports
Mon Sep 17 15:08:46 +0000 2018,On scale good see man,Sports
Mon Sep 17 11:15:00 +0000 2018,Phone09 PhonePhone Number age,Sports
Mon Sep 17 09:28:33 +0000 2018,"Congratulations reach  http://dbpedia.org/ontology/Building,http://dbpedia.org/ontology/ArchitecturalStructure,http://dbpedia.org/ontology/Place,http://dbpedia.org/ontology/Locationets 2⃣0⃣ come include",Sports
Mon Sep 17 08:45:01 +0000 2018,"v v v v v v v Happy /media_common/quotation_subject,/book/book_subject,/tv/tv_subject,/film/film_subject off-spinner take 1⃣3⃣ http://dbpedia.org/ontology/Building,http://dbpedia.org/ontology/ArchitecturalStructure,http://dbpedia.org/ontology/Place,http://dbpedia.org/ontology/Location",Sports
Fri Sep 14 16:07:58 +0000 2018,From one great leader another,Sports
Fri Sep 14 13:51:03 +0000 2018,Guess back,Sports
Fri Sep 14 13:13:11 +0000 2018,Can name men play two different nations,Sports
Fri Sep 14 12:23:33 +0000 2018,Hi sorry hear successfulot Yes able apply wheelchair ticket Thanks,Sports
Fri Sep 14 11:15:00 +0000 2018,friday feel,Sports
Fri Sep 14 09:50:01 +0000 2018,"Phone83 Phone92 Happy /media_common/quotation_subject,/book/book_subject,/tv/tv_subject,/film/film_subject Kepler Vessels first man represent two countries http://dbpedia.org/ontology/Sport,http://dbpedia.org/ontology/Activity World",Sports
Fri Sep 14 09:47:44 +0000 2018,See make sure dress impress,Sports
Fri Sep 14 09:18:01 +0000 2018,"Phone3 appearances Pakistan 2,8Phone Test run 4,780 run Odis 1Phone http://dbpedia.org/ontology/Building,http://dbpedia.org/ontology/ArchitecturalStructure,http://dbpedia.org/ontology/Place,http://dbpedia.org/ontology/Locationets international cricket A",Sports
Fri Sep 14 08:39:14 +0000 2018,Congrats Kim Get ready great summer cricket,Sports
Fri Sep 14 06:36:07 +0000 2018,"Hi Mark You also sign Phone account review outcome Phone Company,/organization/organizationllot",Sports
Fri Sep 14 06:23:24 +0000 2018,Hi receive detail regard sale shortly Thanks,Sports
Fri Sep 14 06:21:37 +0000 2018,Hi unsuccessful firstot receive detail priority sale shortly Thanks,Sports
Fri Sep 14 06:14:31 +0000 2018,What result,Sports
Fri Sep 14 03:10:00 +0000 2018,Do agree,Sports
Thu Sep 13 20:18:45 +0000 2018,Hi unsuccessfulot receive detail priority sale shortly,Sports
Thu Sep 13 18:54:01 +0000 2018,"Hi She sign Phone account review outcome Phone Company,/organization/organizationllot apply",Sports
Thu Sep 13 18:28:21 +0000 2018,Hi sorry hear If unsuccessfulot receive detail priori,Sports
Thu Sep 13 18:27:22 +0000 2018,Hi Daniel Official ticket resale programme launch October Thanks,Sports
Thu Sep 13 18:03:07 +0000 2018,Hi unsuccessfulot  full priority,Sports
Thu Sep 13 17:52:55 +0000 2018,ICC cwcPhone Official Statement Regarding Unofficial Ticket Resale please read,Sports
Thu Sep 13 17:31:55 +0000 2018,"Hi Helen You sign Phone account review outcome Phone Company,/organization/organizationllot",Sports
Thu Sep 13 17:11:53 +0000 2018,Hi Adam yes unsuccessful send detail Thanks,Sports
Thu Sep 13 17:10:08 +0000 2018,Hi Kevin still send sign Phone account review outcome,Sports
Thu Sep 13 16:27:21 +0000 2018,"Hi Person,/people/person You sign Phone account review outcome Phone Company,/organization/organizationllot",Sports
Thu Sep 13 16:23:20 +0000 2018,Sorry hear Nick unsuccessful shortly receive  us priority sale Thanks,Sports
Thu Sep 13 16:19:06 +0000 2018,The site busy minute may queue able access shortly,Sports
Thu Sep 13 16:07:46 +0000 2018,"Hi Dec You sign Phone account review outcome Phone Company,/organization/organizationllot applicant",Sports
Thu Sep 13 16:05:36 +0000 2018,Sorry hear If unsuccessfulot shortly receive detail priority sale Thanks,Sports
Thu Sep 13 16:03:51 +0000 2018,Hi Jessica queue site busy able access shortly Thanks,Sports
Thu Sep 13 15:24:18 +0000 2018,"Hi Nick You sign Phone account review outcome Phone Company,/organization/organizationllot apps",Sports
Thu Sep 13 15:15:00 +0000 2018,Wonderful Warne web win ,Sports
Thu Sep 13 14:43:56 +0000 2018,He come first match See,Sports
Thu Sep 13 14:36:20 +0000 2018,Hi sorry hear unsuccessfulot receive detail pp,Sports
Thu Sep 13 14:33:58 +0000 2018,Hi Robert receive nothingot hear us priority sale detail shortly Thanks,Sports
Thu Sep 13 14:12:26 +0000 2018,See Ash,Sports
Thu Sep 13 14:05:37 +0000 2018,Get See 2⃣0⃣1⃣9⃣,Sports
Thu Sep 13 14:01:14 +0000 2018,Who number rank  players cwcPhone Batting Bowling All-rounder,Sports
Thu Sep 13 13:41:13 +0000 2018,"Hi Daniel You sign Phone account review outcome Phone Company,/organization/organizationllot",Sports
Thu Sep 13 13:40:02 +0000 2018,Hi Neil  full detail shortly Thanks,Sports
Thu Sep 13 13:36:37 +0000 2018,"Hi Steve You sign Phone account review outcome Phone Company,/organization/organizationllot",Sports
Thu Sep 13 13:09:46 +0000 2018,"Hi Richard You sign Phone account review outcome Phone Company,/organization/organizationllot",Sports
Thu Sep 13 12:54:03 +0000 2018,Hi site currently receive lot traffic queue get access shortly Thanks,Sports
Thu Sep 13 12:40:50 +0000 2018,Hi reset password via link,Sports
Thu Sep 13 12:38:21 +0000 2018,Hi try log account check,Sports
Thu Sep 13 12:36:13 +0000 2018,Hi Jon unfortunately still mean unsuccessful,Sports
Thu Sep 13 12:33:24 +0000 2018,No mean currently lot people try login site queue go,Sports
Thu Sep 13 12:27:49 +0000 2018,Hi people unsuccessfulot eligible priority sale Thanks,Sports
Thu Sep 13 12:26:52 +0000 2018, piece  magic,Sports
Thu Sep 13 12:24:22 +0000 2018,That correct however longer require ticket able,Sports
Thu Sep 13 12:20:10 +0000 2018,Hi Uma login account Thanks,Sports
Thu Sep 13 12:19:10 +0000 2018,Well Adam We see Time,Sports
Thu Sep 13 12:13:33 +0000 2018,Hi Josh currently work  would like know result c,Sports
Thu Sep 13 12:11:54 +0000 2018,"Hi Devina Sorry hear unsuccessful Those miss Company,/organization/organizationllot http://dbpedia.org/ontology/Sport,http://dbpedia.org/ontology/Activity",Sports
Thu Sep 13 12:09:07 +0000 2018,"Hi You sign Phone account review outcome Phone Company,/organization/organizationllot ",Sports
Thu Sep 13 12:08:28 +0000 2018,Hi Due sheer volume  result spread across period time You check,Sports
Thu Sep 13 12:07:08 +0000 2018,Hi Josh website receive lot traffic earlier able login account soon Thanks,Sports
Thu Sep 13 12:05:28 +0000 2018,Hi unable attend Official resale Platform avail,Sports
Thu Sep 13 11:38:53 +0000 2018,"Hi Ahsan Sorry hear unsuccessful If miss Company,/organization/organizationllot",Sports
Thu Sep 13 11:38:25 +0000 2018,Hi Josh You login account check result ,Sports
Thu Sep 13 11:37:40 +0000 2018,Good work Tara,Sports
Thu Sep 13 11:35:57 +0000 2018,Hi Sarah You login account check result ,Sports
Thu Sep 13 10:54:37 +0000 2018,The priority window unsuccessfulot Remaining ticket,Sports
Thu Sep 13 10:53:23 +0000 2018,Boom,Sports
Thu Sep 13 10:38:57 +0000 2018,"Hi Hair Sorry hear unsuccessful If miss Company,/organization/organizationllot http://dbpedia.org/ontology/Sport,http://dbpedia.org/ontology/Activity",Sports
Thu Sep 13 10:26:15 +0000 2018,Hi The priority window unsuccessful fullot,Sports
Thu Sep 13 10:24:34 +0000 2018,Hi Mark Yes receive  confirmation today,Sports
Thu Sep 13 10:24:16 +0000 2018,"Hi Visual Sorry hear unsuccessful Those miss Company,/organization/organizationllot",Sports
Thu Sep 13 10:15:01 +0000 2018," game 474runs fifties high score http://dbpedia.org/ontology/Building,http://dbpedia.org/ontology/ArchitecturalStructure,http://dbpedia.org/ontology/Place,http://dbpedia.org/ontology/Locationets catch Happy retirement former",Sports
Thu Sep 13 09:52:58 +0000 2018,"Congrats Person,/people/person",Sports
Thu Sep 13 09:51:14 +0000 2018,There ticket available every team every venue,Sports
Thu Sep 13 09:50:47 +0000 2018,If log click My Applications able see result,Sports
Thu Sep 13 09:48:55 +0000 2018,"Hi Your cwcPhone ticket count http://dbpedia.org/ontology/Bank,http://dbpedia.org/ontology/Company,http://dbpedia.org/ontology/Organisation,http://dbpedia.org/ontology/Agent You apply http://dbpedia.org/ontology/Bank,http://dbpedia.org/ontology/Company,http://dbpedia.org/ontology/Organisation,http://dbpedia.org/ontology/Agent usual channel Thanks",Sports
Thu Sep 13 09:46:48 +0000 2018,Hi It ot process,Sports
Thu Sep 13 09:37:39 +0000 2018,"Hi /fictional_universe/person_in_fiction,/film/film_character,/fictional_universe/fictional_character,/book/book_character,/symbols/name_source,/religion/deity,/film/film_subject You result ",Sports
Thu Sep 13 09:37:18 +0000 2018,"Hi Person,/people/person result go throughout day You check status applicant",Sports
Thu Sep 13 09:34:35 +0000 2018,Hi Steve You check status  ticket account,Sports
Thu Sep 13 09:34:13 +0000 2018,Hi Lewis Due sheer volume  result spread across period time You,Sports
Thu Sep 13 09:32:54 +0000 2018,"Hi Person,/people/person If card payment fail pm  Time able log online act",Sports
Thu Sep 13 09:27:38 +0000 2018,Boom,Sports
Thu Sep 13 09:19:31 +0000 2018,Pass indeed,Sports
Thu Sep 13 09:15:41 +0000 2018,"Hi Yes result  today Those miss Company,/organization/organizationllot Crick",Sports
Thu Sep 13 09:15:10 +0000 2018,"Hi Person,/people/person hear unsuccessful Those miss Company,/organization/organizationllot C",Sports
Thu Sep 13 09:13:03 +0000 2018,It go good cwcPhone,Sports
Thu Sep 13 09:07:48 +0000 2018,Hi Yes result  today,Sports
Thu Sep 13 09:06:56 +0000 2018,Wood,Sports
Thu Sep 13 09:04:28 +0000 2018,"Get Person,/people/person",Sports
Thu Sep 13 08:51:12 +0000 2018,Who five …,Sports
Thu Sep 13 06:15:00 +0000 2018, piece  magic,Sports
Thu Sep 13 02:45:00 +0000 2018," winner Player Match Phone9 Final Company,/organization/organizationg   history Happy /media_common/quotation_subject,/book/book_subject,/tv/tv_subject,/film/film_subject",Sports
Wed Sep 12 15:37:49 +0000 2018,World The winners  winner The  trophy tour drive Nissan meet star,Sports
Wed Sep 12 12:23:42 +0000 2018,Will hold real Time  trophy tour,Sports
Wed Sep 12 10:30:00 +0000 2018,Where apply cwcPhone,Sports
Wed Sep 12 09:14:28 +0000 2018,Over Number cwcPhone ticket apply,Sports
Wed Sep 12 07:56:35 +0000 2018,"H http://dbpedia.org/ontology/Album,http://dbpedia.org/ontology/MusicalWork,http://dbpedia.org/ontology/Work announce via  Time",Sports
Wed Sep 12 03:00:00 +0000 2018,"Happy /media_common/quotation_subject,/book/book_subject,/tv/tv_subject,/film/film_subject null Person,/people/person yorker",Sports
Wed Sep 12 01:15:00 +0000 2018,"Happy /media_common/quotation_subject,/book/book_subject,/tv/tv_subject,/film/film_subject Phone07  winner",Sports
