Timestamp,Tweet_Text,tag
Fri Sep 14 22:01:01 +0000 2018,"We /business/product_category,/business/industry,/organization/organization_sectores scissor /award/award_discipline,/film/film_job,/people/profession feel free relax",Culture
Wed Sep 12 15:42:17 +0000 2018,"Did know Cuddling make feel closer partner Person,/people/persondies show also lower",Culture
Fri Aug 31 20:29:13 +0000 2018,And,Culture
Tue Aug 28 21:47:30 +0000 2018,"Hey Person,/people/person If order yesterday likely /architecture/building_function,/business/industry,/book/book_subject,/organization/organization_sector still process order Ping",Culture
Thu Aug 23 17:42:24 +0000 2018,"Charitable /business/product_category,/media_common/quotation_subject /internet/website_category,/organization/organization_sector,/business/industry work donate Number new /business/product_category,/business/industry,/organization/organization_sectores families impact",Culture
Wed Aug 22 14:17:15 +0000 2018,Hi boo,Culture
Mon Aug 20 18:50:29 +0000 2018,"Company,/organization/organizationinking home /business/product_category,/media_common/quotation_subject like",Culture
Fri Aug 17 16:38:31 +0000 2018,"How /book/book_subject,/media_common/quotation_subject",Culture
Tue Aug 14 16:12:54 +0000 2018,"Contrary popular belief Zz second thing people say try /biology/organism_classification_rank  Company,/organization/organizatione first thing oo",Culture
Mon Aug 13 20:25:44 +0000 2018,"College students think stay late study get ahead Place,/location/locationience prove lose /book/book_subject,/media_common/quotation_subject mean lose",Culture
Mon Aug 13 18:55:35 +0000 2018,"Place,/location/locationout  founder /people/profession,/book/book_subject,/organization/role,/dataworld/information_source,/fictional_universe/fictional_job_title,/projects/project_role,/business/employer,/organization/organization_founder,/organization/contact_category,/fictional_universe/character_rank,/fictional_universe/character_occupation,/business/job_title /book/book_subject,/media_common/quotation_subject Company,/organization/organization date Company,/organization/organizationmorn",Culture
Fri Aug 10 20:53:11 +0000 2018,"Fading PM Next time instead http://dbpedia.org/ontology/Drug,http://dbpedia.org/ontology/ChemicalPlace,/location/locationbstance try one alternatives",Culture
Thu Jul 19 18:24:51 +0000 2018,"I Ve nights best /book/book_subject,/media_common/quotation_subject life Company,/organization/organizationank recommend",Culture
Mon Jul 16 15:46:41 +0000 2018,"Company,/organization/organizatione Company,/organization/organizationmorrow /biology/organism_classification_rank  regulate body /business/product_category,/business/industry,/organization/organization_sector temperature feature memory foam feel win",Culture
Thu Jul 12 15:49:46 +0000 2018,"Place,/location/locationy goodbye bulky  tomorrow /book/book_subject,/media_common/quotation_subject",Culture
Wed Jul 11 14:00:21 +0000 2018,"You never old  tomorrow /book/book_subject,/media_common/quotation_subject",Culture
Fri Jul 06 17:47:47 +0000 2018,"Company,/organization/organizatione cleaner http://dbpedia.org/ontology/Film,http://dbpedia.org/ontology/Wikidata:Q114Phone,http://dbpedia.org/ontology/Work /book/book_subject,/media_common/quotation_subject",Culture
Tue Jul 03 14:19:20 +0000 2018,"Drift   repeat tomorrow /book/book_subject,/media_common/quotation_subject",Culture
Mon Jul 02 15:03:20 +0000 2018,"Company,/organization/organizatione Quid Pick Company,/organization/organizatione Company,/organization/organizationmorrow /book/book_subject,/media_common/quotation_subject /biology/organism_classification_rank  tomorrow /book/book_subject,/media_common/quotation_subject",Culture
Fri Jun 29 15:38:48 +0000 2018,"It common think tomorrow /book/book_subject,/media_common/quotation_subject",Culture
Thu Jun 28 20:43:08 +0000 2018,"Company,/organization/organizationanks new /business/product_category,/business/industry,/organization/organization_sector I wait go /book/book_subject,/media_common/quotation_subject",Culture
Thu Jun 28 17:10:07 +0000 2018,"We excite announce /internet/website_category,/organization/organization_sector,/business/industry offer /biology/organism_classification_rank /business/product_category,/business/industry,/organization/organization_sector selections CBW store nation",Culture
Wed Jun 27 15:09:15 +0000 2018,In city darkness barely descend time year team take extra step get adequate rest despite,Culture
Tue Jun 26 20:04:16 +0000 2018,"Our /business/product_category,/business/industry,/organization/organization_sector available many store yet stay tune In meantime feel free reach",Culture
Fri Jun 22 15:54:55 +0000 2018,"Company,/organization/organizatione biggest adventure take live life  tomorrow /book/book_subject,/media_common/quotation_subject",Culture
Thu Jun 21 14:30:14 +0000 2018,"/book/book_subject,/media_common/quotation_subject way tomorrow /book/book_subject,/media_common/quotation_subject",Culture
Tue Jun 19 16:38:23 +0000 2018,"/book/book_subject,/media_common/quotation_subject tip trouble drift try dim light Durations /business/product_category,/media_common/quotation_subject signal body",Culture
Mon Jun 18 20:49:15 +0000 2018,"hours /book/book_subject,/media_common/quotation_subject new hours tomorrow /book/book_subject,/media_common/quotation_subject",Culture
Fri Jun 15 15:15:34 +0000 2018,My plan weekend ,Culture
Thu Jun 14 20:40:18 +0000 2018,"If  feel sink /business/product_category,/media_common/quotation_subject go fall /book/book_subject,/media_common/quotation_subjecty head  Company,/organization/organizationmorrow",Culture
Wed Jun 13 19:44:09 +0000 2018,"It story time space tomorrow /book/book_subject,/media_common/quotation_subject",Culture
Tue Jun 12 15:30:16 +0000 2018,"Fur seal switch R E M /book/book_subject,/media_common/quotation_subject sea land pattern never see Place,/location/locationa",Culture
Fri Jun 08 18:30:44 +0000 2018,"/book/book_subject,/media_common/quotation_subject way better work day new podcast Fast Company tomorrow /book/book_subject,/media_common/quotation_subject",Culture
Thu Jun 07 19:16:11 +0000 2018,"Place,/location/locationay cool Our durable splashproof protector make Instacool™ technology pull excess heat away",Culture
Tue Jun 05 18:22:07 +0000 2018,"/book/book_subject,/media_common/quotation_subject way want want new Company,/organization/organizationmorrow adjustable /business/product_category,/media_common/quotation_subject",Culture
Mon Jun 04 16:43:19 +0000 2018,"/book/book_subject,/media_common/quotation_subject like space cadet tomorrow /book/book_subject,/media_common/quotation_subject",Culture
Mon Jun 04 15:23:31 +0000 2018,"Last night first night /book/book_subject,/media_common/quotation_subject  My Place,/location/locationandal Crew gift Ahh ",Culture
Tue May 29 20:48:04 +0000 2018,"tomorrow /book/book_subject,/media_common/quotation_subject",Culture
Mon May 28 22:18:03 +0000 2018,"We think wellness company /book/book_subject,/media_common/quotation_subject one four pillars wellness along diet",Culture
Wed May 23 18:33:34 +0000 2018,"Just cute animal picture get work day tomorrow /book/book_subject,/media_common/quotation_subject",Culture
Tue May 22 14:09:16 +0000 2018,"Company,/organization/organizationesday morning mood tomorrow /book/book_subject,/media_common/quotation_subject",Culture
Mon May 21 18:57:42 +0000 2018,"Dreams tomorrow /book/book_subject,/media_common/quotation_subject",Culture
Fri May 18 21:48:04 +0000 2018,"For deeper /book/book_subject,/media_common/quotation_subject kid try dim light time /business/product_category,/media_common/quotation_subject tomorrow /book/book_subject,/media_common/quotation_subject",Culture
Thu May 17 19:06:57 +0000 2018,"Enter Women Wellness Giveaway chance win 1,700 worth prize include luxury /business/product_category,/media_common/quotation_subject",Culture
Wed May 16 19:38:14 +0000 2018,"Come visit us Home try Company,/organization/organizationmorrow IRL ny DW tomorrow /book/book_subject,/media_common/quotation_subject",Culture
Tue May 15 20:01:27 +0000 2018," /business/product_category,/business/industry,/organization/organization_sector box way fun",Culture
Mon May 14 17:03:22 +0000 2018,"You snooze lose tomorrow /book/book_subject,/media_common/quotation_subject",Culture
Sat May 12 19:53:06 +0000 2018,"tomorrow /book/book_subject,/media_common/quotation_subject",Culture
Fri May 11 14:00:49 +0000 2018,We kick NOW first pop-up Home curated retail  showcasing,Culture
Thu May 10 16:03:16 +0000 2018,"Our favorite four-letter word tomorrow /book/book_subject,/media_common/quotation_subject",Culture
Wed May 09 14:57:45 +0000 2018,"Calling /business/product_category,/business/industry,/organization/organization_sector /internet/website_category,/organization/organization_sector,/business/industry really cut Company,/organization/organizationmorrow /book/book_subject,/media_common/quotation_subject take  approach help get",Culture
Tue May 08 21:39:52 +0000 2018,"Listen Founder talk childhood pie sales web future /book/book_subject,/media_common/quotation_subject",Culture
Thu May 03 17:13:17 +0000 2018,"Meditation technique calm center train mind Find zen beginner meditation guide Company,/organization/organization",Culture
Wed May 02 18:40:36 +0000 2018,"Even monkey know importance quality /book/book_subject,/media_common/quotation_subject setup tomorrow /book/book_subject,/media_common/quotation_subject",Culture
Tue May 01 21:42:41 +0000 2018,"If  small Ava DuVernay tomorrow /book/book_subject,/media_common/quotation_subject",Culture
Mon Apr 30 17:23:21 +0000 2018,"Company,/organization/organizatione best way solve /book/book_subject,/media_common/quotation_subject problems might pretend never Company,/organization/organizationmorrow/book/book_subject,/media_common/quotation_subject…",Culture
Fri Apr 27 16:04:06 +0000 2018,Research show get good night help rev metabolism balance hormones boost mood,Culture
Wed Apr 25 20:06:57 +0000 2018,"tomorrow /book/book_subject,/media_common/quotation_subject",Culture
Wed Apr 25 18:57:30 +0000 2018,"Company,/organization/organizatione key run successful business /book/book_subject,/media_common/quotation_subject /book/book_subject,/media_common/quotation_subject /book/book_subject,/media_common/quotation_subject tomorrow /book/book_subject,/media_common/quotation_subject",Culture
Tue Apr 24 19:23:00 +0000 2018,"Imagine /business/product_category,/media_common/quotation_subject feel good tomorrow /book/book_subject,/media_common/quotation_subject RG",Culture
Mon Apr 23 18:26:16 +0000 2018,"/book/book_subject,/media_common/quotation_subject like space cadet Zero-Gravity position Learn Company,/organization/organizationmorrow magazine tomorrow /book/book_subject,/media_common/quotation_subject",Culture
Sat Apr 21 19:55:01 +0000 2018,"Hop Our /business/product_category,/business/industry,/organization/organization_sectores perfect whole family Place,/location/locatione 365-night…",Culture
Fri Apr 20 17:27:33 +0000 2018,In art  may proceed abandon In life may proceed balance,Culture
Fri Apr 20 15:09:54 +0000 2018,"Are /book/book_subject,/media_common/quotation_subject-concious Achieving full potential require attention four pillars health diet exerce",Culture
Thu Apr 19 17:07:08 +0000 2018,"According Place,/location/locationanford University basketball players sprint faster react quicker accus",Culture
Thu Apr 19 17:04:32 +0000 2018,"Place,/location/locationuggle breathable /business/product_category,/media_common/quotation_subject Our 500-thread-count sheet make Phone0 Place,/location/locationpra cotton",Culture
Wed Apr 18 22:02:03 +0000 2018,"Company,/organization/organizationmorrow better day good night /book/book_subject,/media_common/quotation_subject share diverse voice dedicate make",Culture
Wed Apr 18 19:23:29 +0000 2018,"Enter Win Girlfriend Getaway Florida Company,/organization/organizationmorrow /book/book_subject,/media_common/quotation_subject system Link bio Company,/organization/organizationmorrow/book/book_subject,/media_common/quotation_subject…",Culture
Tue Apr 17 19:25:30 +0000 2018,"Place,/location/locationrry see happen Austin Be sure reach help com soon",Culture
Mon Apr 16 21:44:17 +0000 2018,"Do skimp /book/book_subject,/media_common/quotation_subject tomorrow /book/book_subject,/media_common/quotation_subject",Culture
Mon Apr 16 14:26:32 +0000 2018,"Company,/organization/organizationat feel get fly  Company,/organization/organizationy Company,/organization/organizationmorrow /biology/organism_classification_rank /business/product_category,/business/industry,/organization/organization_sector",Culture
Fri Apr 13 15:43:49 +0000 2018,"Get morning glow tomorrow /book/book_subject,/media_common/quotation_subject RG mayaelious",Culture
Thu Apr 12 19:51:38 +0000 2018,"Place,/location/locationep spring Did know /book/book_subject,/media_common/quotation_subject cycle connect mother nature light",Culture
Thu Apr 12 14:01:02 +0000 2018,"Because /book/book_subject,/media_common/quotation_subject tip create equal tomorrow /book/book_subject,/media_common/quotation_subject",Culture
Wed Apr 11 23:12:46 +0000 2018,"Introducing new Company,/organization/organizationmorrow Memory Foam  Company,/organization/organizationree layer breezy contour comfort",Culture
Wed Apr 11 15:24:48 +0000 2018,"Waiting weekend like RG tomorrow /book/book_subject,/media_common/quotation_subject",Culture
Tue Apr 10 18:00:09 +0000 2018,"Company,/organization/organization catch go Place,/location/locationB newest /internet/website_category,/organization/organization_sector,/business/industry check blog interview Company,/organization/organizationmorrow Founded",Culture
Mon Apr 09 14:15:08 +0000 2018,"Everything need know  tomorrow /book/book_subject,/media_common/quotation_subject",Culture
Thu Apr 05 20:42:15 +0000 2018,"Plusher pillow Cooler sheet Better tomorrows RG murraymeez tomorrow /book/book_subject,/media_common/quotation_subject",Culture
Thu Apr 05 14:14:03 +0000 2018,We happy share latest interview Founder President part,Culture
Wed Apr 04 14:47:08 +0000 2018,"In Japan satura blossom symbolize renewal ephemeral beauty life tomorrow /book/book_subject,/media_common/quotation_subject",Culture
Mon Apr 02 21:29:45 +0000 2018,Congratulations er make Monday It smooth sail,Culture
Sun Apr 01 14:29:59 +0000 2018,Dreams fly usually reflect feel freedom escape pressure,Culture
Thu Mar 29 13:36:22 +0000 2018,"Donut ask get /business/product_category,/media_common/quotation_subject RG tomorrow /book/book_subject,/media_common/quotation_subject",Culture
Wed Mar 28 16:11:32 +0000 2018,"Did know lose weight snooze Not burn calories /book/book_subject,/media_common/quotation_subject bein",Culture
Tue Mar 27 17:13:36 +0000 2018,"Place,/location/locationretch Whether work towards touch toe already back-bend…",Culture
Mon Mar 26 16:45:07 +0000 2018,"We Ve say strange things slumber know /book/book_subject,/media_common/quotation_subject talk unravel mysteries",Culture
Sun Mar 25 19:37:15 +0000 2018,"Place,/location/locationeps symbolic progress determination Place,/location/locationay path make best",Culture
Thu Mar 22 15:25:28 +0000 2018,"Find sweet spot Company,/organization/organizationese Place,/location/locationuthern bell know cozy perfect spring day RGS",Culture
Mon Mar 19 19:18:49 +0000 2018,Our /biology/organism_classification_ranka,Culture
Mon Mar 19 14:30:21 +0000 2018,"In future driverless cars journey work could commence soon fall a/book/book_subject,/media_common/quotation_subject Highways would host",Culture
Fri Mar 16 15:18:38 +0000 2018,"Luxurious comfort perfect bounce tomorrow /book/book_subject,/media_common/quotation_subject",Culture
Thu Mar 15 14:11:32 +0000 2018,"Place,/location/locationrprise Company,/organization/organizationank /book/book_subject,/media_common/quotation_subject  Company,/organization/organizationmorrow/book/book_subject,/media_common/quotation_subject post scandal survival kit",Culture
Wed Mar 14 19:17:31 +0000 2018,"Watch celebrate series finale Place,/location/locationandal surprise fellow crew casemates new",Culture
Wed Mar 14 16:13:04 +0000 2018,We heart NY Revisit Giuliani Big Apple Phone98 piece  New Yorker never,Culture
Tue Mar 13 14:35:18 +0000 2018,"Dog rs rejoice A recent study researchers Mayo Clinic find share /business/product_category,/media_common/quotation_subject furry fro",Culture
Mon Mar 12 23:56:16 +0000 2018,"Breathe breathe Company,/organization/organizatione next time trouble /book/book_subject,/media_common/quotation_subject switch focus",Culture
Mon Mar 12 14:03:09 +0000 2018,If stay awake late enough eventually remember everything All usual defenses dissolve Your mind,Culture
Fri Mar 09 14:01:26 +0000 2018,"Loving /internet/website_category,/organization/organization_sector,/business/industry new /business/product_category,/business/industry,/organization/organization_sectores I obsess I look something comfortable supportive In",Culture
Thu Mar 08 22:03:54 +0000 2018,"How /book/book_subject,/media_common/quotation_subject light social cue Contestants Darkness new cave-dwelling reality show find",Culture
Tue Mar 06 15:12:00 +0000 2018,Insomniac Dreams meditation ways  unmoor us—from one another,Culture
Mon Mar 05 22:53:47 +0000 2018,"In WILD NIGHCompany,/organization/organizationlace,/location/locationHow Company,/organization/organizationming /book/book_subject,/media_common/quotation_subject Created Our Restless World author Benjamin Reiss make sense segment /book/book_subject,/media_common/quotation_subject",Culture
Sat Mar 03 14:40:58 +0000 2018,"You never young enjoy finer things life like deep /book/book_subject,/media_common/quotation_subject fine paint",Culture
Fri Mar 02 20:58:33 +0000 2018,"Gonzalez-Company,/organization/organizationrres understand /business/product_category,/media_common/quotation_subject queer architectural form negative whatever body inhabit",Culture
Thu Mar 01 19:19:00 +0000 2018,"Preparing /book/book_subject,/media_common/quotation_subject strangers world create virtual cocoon us tacitly show",Culture
Mon Feb 26 16:44:01 +0000 2018,"Author Henry Nicholls live /book/book_subject,/media_common/quotation_subject disorder tomorrow /book/book_subject,/media_common/quotation_subject",Culture
Fri Feb 23 16:46:31 +0000 2018,"In Manhattan water/business/product_category,/media_common/quotation_subject display Bloomingdale department store popular single meet ply",Culture
Thu Feb 22 22:46:19 +0000 2018,"We glad Company,/organization/organizationmorrow /book/book_subject,/media_common/quotation_subject summit look forward",Culture
Thu Feb 22 16:12:52 +0000 2018,We happy part dig day retail summit year It great see founder,Culture
Wed Feb 21 19:48:37 +0000 2018,"Dreams tomorrow /book/book_subject,/media_common/quotation_subject",Culture
Wed Feb 21 17:58:40 +0000 2018,"We excite announce founder give talk dig day retail Place,/location/locationmmit Company,/organization/organizationne",Culture
Tue Feb 20 20:27:40 +0000 2018,"Did know dolphins snooze use half AnatomicalStructure,/book/book_subject,/medicine/anatomical_structure Check first episode Company,/organization/organizatione Place,/location/locationcret World",Culture
Mon Feb 19 15:55:00 +0000 2018,"/book/book_subject,/media_common/quotation_subject memory researchers North Western University discover smell sound cue give slur",Culture
Sun Feb 18 22:01:00 +0000 2018,"Everyone know best beauty secret good night /book/book_subject,/media_common/quotation_subject Discover best self",Culture
Fri Feb 16 16:33:08 +0000 2018,"Company,/organization/organizationy pillow perfect /book/book_subject,/media_common/quotation_subject r  lifestyle guru",Culture
Thu Feb 15 17:30:34 +0000 2018,"Cats spend third live /book/book_subject,/media_common/quotation_subject get cozy Company,/organization/organizationmorrow Comforters",Culture
Wed Feb 14 15:02:53 +0000 2018,"Hurry /book/book_subject,/media_common/quotation_subject Better Company,/organization/organizationgether offer end soon From February receive Phone0…",Culture
Tue Feb 13 17:12:27 +0000 2018,Just time Valentines Our 500-thread count supra cotton sheet set include Men Fitness list,Culture
Tue Feb 13 14:56:46 +0000 2018,"/book/book_subject,/media_common/quotation_subject foundation healthy lifestyle tomorrow /book/book_subject,/media_common/quotation_subject",Culture
Mon Feb 12 16:42:45 +0000 2018,"A brief sartorial history slumber tomorrow /book/book_subject,/media_common/quotation_subject",Culture
Fri Feb 09 20:25:33 +0000 2018,"Goodnight moon tomorrow /book/book_subject,/media_common/quotation_subject",Culture
Thu Feb 08 19:17:34 +0000 2018,"/book/book_subject,/media_common/quotation_subject better together For limit time get free pillow Phone0 buy new Company,/organization/organizationmorrow /business/product_category,/business/industry,/organization/organization_sector",Culture
Wed Feb 07 21:23:31 +0000 2018,"/book/book_subject,/media_common/quotation_subject like Olympic athlete tomorrow /book/book_subject,/media_common/quotation_subject",Culture
Mon Feb 05 17:46:00 +0000 2018,"We Ve excite announce Company,/organization/organizationmorrow Place,/location/locationeet Place,/location/locationt rat best midrange sheet",Culture
Sat Feb 03 17:43:24 +0000 2018,"Place,/location/locationrry hear We currently work make White G service",Culture
Fri Feb 02 19:43:43 +0000 2018,"Place,/location/locationorter days cause body produce excess melatonin make us tire usual",Culture
Thu Feb 01 19:18:09 +0000 2018,Our tomorrow resolution attack every day important day say,Culture
Wed Jan 31 17:48:08 +0000 2018,"Company,/organization/organizationday post /business/product_category,/business/industry,/organization/organization_sector officially give BEPlace,/location/location /book/book_subject,/media_common/quotation_subject life Yep good",Culture
Wed Jan 31 17:36:08 +0000 2018,Excited include Domino list wellness trend look PhonePhone Visit,Culture
Tue Jan 30 18:42:48 +0000 2018,"Americans get /book/book_subject,/media_common/quotation_subject ever still enough tomorrow /book/book_subject,/media_common/quotation_subject",Culture
Mon Jan 29 18:36:26 +0000 2018,"What tomorrow resolution tomorrow /book/book_subject,/media_common/quotation_subject",Culture
Fri Jan 26 16:52:25 +0000 2018,"Place,/location/locationmetimes need /book/book_subject,/media_common/quotation_subject innovators Company,/organization/organizationese parent construct /book/book_subject,/media_common/quotation_subject machine tire baby",Culture
Thu Jan 25 21:36:37 +0000 2018,"Less one week head Minneapolis My tomorrow /book/book_subject,/media_common/quotation_subject resolution get least hours /book/book_subject,/media_common/quotation_subject per night lead",Culture
Wed Jan 24 20:55:37 +0000 2018,"Company,/organization/organizationere reason crave /book/book_subject,/media_common/quotation_subject say Your body need repair",Culture
Tue Jan 23 18:09:32 +0000 2018,"How much /book/book_subject,/media_common/quotation_subject YOU need feel productive tomorrow /book/book_subject,/media_common/quotation_subject",Culture
Mon Jan 22 21:16:30 +0000 2018,"Ban binge A new study show teens difficulty /book/book_subject,/media_common/quotation_subject watch Company,/organization/organizationV tomorrow /book/book_subject,/media_common/quotation_subject",Culture
Thu Jan 18 22:10:34 +0000 2018,"Place,/location/locationay cool fall a/book/book_subject,/media_common/quotation_subject faster tomorrow /book/book_subject,/media_common/quotation_subject",Culture
Wed Jan 17 20:09:15 +0000 2018,"Company,/organization/organizationy Zero Gravity set adjustable base /book/book_subject,/media_common/quotation_subject world",Culture
Tue Jan 16 20:17:18 +0000 2018,"Company,/organization/organizationere nothing better bore /business/product_category,/media_common/quotation_subjecttime story send land /book/book_subject,/media_common/quotation_subject",Culture
Tue Jan 16 19:09:03 +0000 2018,"Whoops Place,/location/locationrry confusion Please reach help com  team happy assist",Culture
Mon Jan 15 17:30:11 +0000 2018,"Randy Gardner go without /book/book_subject,/media_common/quotation_subject days Company,/organization/organizationn years later experiment come back haunt tune",Culture
Fri Jan 12 20:14:46 +0000 2018,"I see dark side moon Pink Floyd tomorrow /book/book_subject,/media_common/quotation_subject",Culture
Thu Jan 11 21:06:15 +0000 2018,"Have ever say nasty things partner deep slumber Company,/organization/organizatione good news is—you alone",Culture
Wed Jan 10 21:25:33 +0000 2018,"All roads lead future tomorrow /book/book_subject,/media_common/quotation_subject",Culture
Tue Jan 09 21:44:03 +0000 2018,"A bigger /business/product_category,/business/industry,/organization/organization_sector might need better night /book/book_subject,/media_common/quotation_subject Check  /book/book_subject,/media_common/quotation_subject remedy ff",Culture
Mon Jan 08 21:02:31 +0000 2018,"Boost AnatomicalStructure,/book/book_subject,/medicine/anatomical_structure power get better night /book/book_subject,/media_common/quotation_subject surprise super food",Culture
Sat Jan 06 20:58:52 +0000 2018,"Company,/organization/organizatione magic /business/product_category,/business/industry,/organization/organization_sector Discover difference truly restorative /book/book_subject,/media_common/quotation_subject Company,/organization/organizationmorrow",Culture
Fri Jan 05 21:07:07 +0000 2018,"Cats  REM non-REM /book/book_subject,/media_common/quotation_subject When cat eye ears start twitch",Culture
Thu Jan 04 20:44:54 +0000 2018,"Even furry friends know importance good night /book/book_subject,/media_common/quotation_subject tomorrow /book/book_subject,/media_common/quotation_subject",Culture
Wed Jan 03 20:04:47 +0000 2018,"A good night /book/book_subject,/media_common/quotation_subject help conquer new year resolutions tomorrow /book/book_subject,/media_common/quotation_subject",Culture
Sun Dec 31 02:23:23 +0000 2017,"easy tip get better /book/book_subject,/media_common/quotation_subject new year",Culture
Fri Dec 29 16:25:21 +0000 2017,"/book/book_subject,/media_common/quotation_subject Products Actually Work include Company,/organization/organizationmorrow write Company,/organization/organizatione /business/product_category,/business/industry,/organization/organization_sector firm offer enough cush",Culture
Thu Dec 21 15:34:53 +0000 2017,"Congratulations We  truth /book/book_subject,/media_common/quotation_subject much feature Most Influential Peon",Culture
Thu Dec 21 15:31:36 +0000 2017,"Check optimal /book/book_subject,/media_common/quotation_subject environment look feel smell sound",Culture
Tue Dec 19 15:59:14 +0000 2017,"include Company,/organization/organizationmorrow /business/product_category,/business/industry,/organization/organization_sector one key wats get better /book/book_subject,/media_common/quotation_subject naturally call",Culture
Mon Dec 18 19:16:07 +0000 2017,"/book/book_subject,/media_common/quotation_subject habit adopt want wake rest",Culture
Mon Dec 18 17:07:54 +0000 2017,We impress innovative use social media spread importance good night,Culture
Mon Dec 18 14:53:39 +0000 2017,"Pajamas may comfortable scientists say /book/book_subject,/media_common/quotation_subject naked could lead stronger sex drive improve meet",Culture
Sat Dec 16 16:46:18 +0000 2017,"feature /book/book_subject,/media_common/quotation_subjecttracker Monitor today Cool Hunting Daily newsletter highlight track",Culture
Thu Dec 14 16:02:05 +0000 2017,Just think holiday gift giveaway could get bigger harry tv,Culture
Wed Dec 13 00:45:29 +0000 2017,"feature /business/product_category,/business/industry,/organization/organization_sector top choice perfect gift holiday season show",Culture
Mon Dec 11 17:41:55 +0000 2017,"What important healthy lifestyle /book/book_subject,/media_common/quotation_subject exercise via",Culture
Thu Dec 07 18:33:50 +0000 2017,"After /book/book_subject,/media_common/quotation_subject important pillar wellness",Culture
Wed Dec 06 21:05:27 +0000 2017,"Can /book/book_subject,/media_common/quotation_subject Deprivation Cause Anxiety A New Person,/people/persondy Linked Lack Of /book/book_subject,/media_common/quotation_subject Company,/organization/organization Mood Disorders In Company,/organization/organizationens",Culture
Wed Dec 06 20:37:50 +0000 2017,"Company,/organization/organizationanks share /book/book_subject,/media_common/quotation_subject advocate deserve recognition",Culture
Mon Dec 04 17:40:32 +0000 2017,"Want productive include Blackout Drapes Company,/organization/organizationings Give You More Company,/organization/organizationme Place,/location/locationy",Culture
Thu Nov 30 16:54:37 +0000 2017,"At time AnatomicalStructure,/book/book_subject,/medicine/anatomical_structure actually active /book/book_subject,/media_common/quotation_subject awake",Culture
Wed Nov 29 20:38:37 +0000 2017,"Five Ways Company,/organization/organization Prioritize /book/book_subject,/media_common/quotation_subject And Wake Up A Better Employee via",Culture
Wed Nov 29 15:28:50 +0000 2017,"Company,/organization/organizatione answer go way beyond dirty diapers",Culture
Tue Nov 28 19:14:22 +0000 2017,"Company,/organization/organizationis simple daily ritual lead good night /book/book_subject,/media_common/quotation_subject via",Culture
Mon Nov 27 19:14:31 +0000 2017,"Company,/organization/organizationanks advancements /business/product_category,/business/industry,/organization/organization_sector technology  go way Walkman",Culture
Mon Nov 27 18:21:05 +0000 2017,"According /book/book_subject,/media_common/quotation_subject expert Michael Boreus pack work hours know /book/book_subject,/media_common/quotation_subject type",Culture
Wed Nov 22 16:59:15 +0000 2017,While people aware indulge time year take toll waistline impact,Culture
Wed Nov 22 14:45:48 +0000 2017,It American trend,Culture
Tue Nov 21 20:31:54 +0000 2017,"Company,/organization/organizationat last glass wine could ruin /book/book_subject,/media_common/quotation_subject",Culture
Mon Nov 20 20:47:27 +0000 2017,"Napping job may game changer /book/book_subject,/media_common/quotation_subject-deprived nation",Culture
Thu Nov 16 16:53:23 +0000 2017,"roundup Every Black Friday Cber Monday Deal You Need Know About include Company,/organization/organizationmorrow Phone0…",Culture
Wed Nov 15 22:22:48 +0000 2017,"Is /book/book_subject,/media_common/quotation_subjecting With Your Phone Near You Bad Positive Changes You Notice If You Do",Culture
Tue Nov 14 16:58:59 +0000 2017,"Company,/organization/organizationmorrow /people/profession,/book/book_subject,/organization/role,/dataworld/information_source,/fictional_universe/fictional_job_title,/projects/project_role,/business/employer,/organization/organization_founder,/organization/contact_category,/fictional_universe/character_rank,/fictional_universe/character_occupation,/business/job_title Brian Murphy lend insight choose pillow give best nights",Culture
Tue Nov 14 16:58:31 +0000 2017,"Company,/organization/organizatione Company,/organization/organizationmorrow hypoallergenic pillow relieve nighttime sneeze It help much",Culture
Tue Nov 14 15:15:10 +0000 2017,"include Company,/organization/organizationmorrow Best /biology/organism_classification_rank /business/product_category,/business/industry,/organization/organization_sector list How Find -in-a-Box You",Culture
Wed Nov 08 16:21:18 +0000 2017,"/book/book_subject,/media_common/quotation_subject chain tie health body together Griff Niblick",Culture
Tue Nov 07 20:28:06 +0000 2017,It may bad tire work drink,Culture
Mon Nov 06 22:46:01 +0000 2017,"/book/book_subject,/media_common/quotation_subject anxiety fear tire stop us get /book/book_subject,/media_common/quotation_subject via",Culture
Mon Nov 06 14:49:38 +0000 2017,From extreme narcolepsy flesh-eating beetle Here Be Monsters shed light dark creepy taboo topics,Culture
Fri Nov 03 14:44:58 +0000 2017,"A little bite passionflower could go long way come reduce anxiety get better /book/book_subject,/media_common/quotation_subject",Culture
Wed Nov 01 17:59:56 +0000 2017,"Place,/location/locationventeen hours sustain wakefulness lead decrease performance equivalent blood alcohol-level",Culture
Wed Nov 01 16:42:31 +0000 2017,"Place,/location/location exactly clean /book/book_subject,/media_common/quotation_subject anyway And importantly",Culture
Tue Oct 31 21:21:10 +0000 2017,"Parasomnia term refer unusual active movements /book/book_subject,/media_common/quotation_subject",Culture
Mon Oct 30 21:12:58 +0000 2017,"Feeling Groggy Here How Place,/location/locationop Robbing Yourself Good /book/book_subject,/media_common/quotation_subject",Culture
Fri Oct 27 21:34:30 +0000 2017,"Flying comfort Check BUNYA store next month test /business/product_category,/business/industry,/organization/organization_sector ad tomorrow /book/book_subject,/media_common/quotation_subject http",Culture
Thu Oct 26 14:10:31 +0000 2017,"Adopt habit get /book/book_subject,/media_common/quotation_subject schedule run like clockwork",Culture
Wed Oct 25 14:51:22 +0000 2017,"/book/book_subject,/media_common/quotation_subject loss cost us health",Culture
Mon Oct 23 21:17:12 +0000 2017,"How shower night help /book/book_subject,/media_common/quotation_subject",Culture
Mon Oct 23 18:27:51 +0000 2017,What really happen ,Culture
Mon Oct 23 17:34:43 +0000 2017,Phone00 gift card giveaway 7dayscf giveaways,Culture
Fri Oct 20 18:31:04 +0000 2017,"rank plush pillow side /book/book_subject,/media_common/quotation_subjecters Read",Culture
Fri Oct 20 13:39:28 +0000 2017,We share feel advertise Breitbart Online ads target user,Culture
Thu Oct 19 18:30:20 +0000 2017,"/book/book_subject,/media_common/quotation_subject BECompany,/organization/organizationER Diet Company,/organization/organizatione Eating Habits Highly Rested People via",Culture
Thu Oct 19 14:30:31 +0000 2017,With company-sponsored snooze rise help wonder begin,Culture
Wed Oct 18 19:51:18 +0000 2017,"Memories make throughout day strengthen get uninterrupted /book/book_subject,/media_common/quotation_subject tomorrow /book/book_subject,/media_common/quotation_subject",Culture
Tue Oct 17 18:19:29 +0000 2017,"/book/book_subject,/media_common/quotation_subject Place,/location/locationientist Warns Against Walking Company,/organization/organizationrough Life In An Underslept Place,/location/locationate",Culture
Tue Oct 17 18:08:30 +0000 2017,"Company,/organization/organizationke tour /book/book_subject,/media_common/quotation_subject /biology/organism_classification_rank /business/product_category,/business/industry,/organization/organization_sector",Culture
Tue Oct 17 14:42:28 +0000 2017,"Before properly assess /book/book_subject,/media_common/quotation_subject performance important understand aim",Culture
Mon Oct 16 17:12:19 +0000 2017,"Company,/organization/organizatione Place,/location/locationcrets /book/book_subject,/media_common/quotation_subject Why need get enough",Culture
Fri Oct 13 21:43:16 +0000 2017,"Place,/location/locationx years period average human life spend  tomorrow /book/book_subject,/media_common/quotation_subject",Culture
Fri Oct 13 15:49:59 +0000 2017,"What Happens Your Body Brain While You /book/book_subject,/media_common/quotation_subject via",Culture
Tue Oct 10 16:45:11 +0000 2017,"Our Memory Foam Pillow list roundup best pillow every kind /book/book_subject,/media_common/quotation_subjecter",Culture
Tue Oct 10 15:51:43 +0000 2017,"Company,/organization/organizationke vacation want still get rest need",Culture
Mon Oct 09 03:26:50 +0000 2017,Dreams play vital role spark ideas great inventions bear,Culture
Sun Oct 08 16:30:38 +0000 2017,"tomorrow /book/book_subject,/media_common/quotation_subject",Culture
Sun Oct 08 01:27:53 +0000 2017,"Why still underestimate power /book/book_subject,/media_common/quotation_subject via",Culture
Sat Oct 07 16:18:03 +0000 2017,While  people able read tell time  accuracy,Culture
Fri Oct 06 23:58:38 +0000 2017,"Western society chronically /book/book_subject,/media_common/quotation_subject deprive importance body clock",Culture
Thu Oct 05 22:26:27 +0000 2017,A recent study find many people still  monochrome bring black white television,Culture
Thu Oct 05 21:03:48 +0000 2017,"A sweet delivery /business/product_category,/business/industry,/organization/organization_sector include amaze /book/book_subject,/media_common/quotation_subject tracker I take",Culture
Thu Oct 05 01:59:07 +0000 2017,"ways /book/book_subject,/media_common/quotation_subject better tonight even kid tomorrow /book/book_subject,/media_common/quotation_subject Read",Culture
Wed Oct 04 21:31:05 +0000 2017,"Why We /book/book_subject,/media_common/quotation_subject Matthew Walker longer life press snooze via",Culture
Wed Oct 04 02:17:44 +0000 2017,"/book/book_subject,/media_common/quotation_subjecting front aid digestion tomorrow /book/book_subject,/media_common/quotation_subject",Culture
Tue Oct 03 20:05:29 +0000 2017,"Nike Master Company,/organization/organizationainer tight schedule mean relationship /book/book_subject,/media_common/quotation_subject ever evolve",Culture
Mon Oct 02 15:45:30 +0000 2017,Next time fence night decide And affect tomorrow,Culture
Sat Sep 30 23:57:37 +0000 2017,"Humans /book/book_subject,/media_common/quotation_subject average around hours less primates like chimps squirrel monkey baboons /book/book_subject,/media_common/quotation_subject hours",Culture
Fri Sep 29 22:36:55 +0000 2017,"tip better /book/book_subject,/media_common/quotation_subject help become morning person via",Culture
Fri Sep 29 18:58:11 +0000 2017,"Company,/organization/organizatione process /book/book_subject,/media_common/quotation_subject occur five distinct stag repeat every minutes",Culture
Fri Sep 29 14:13:07 +0000 2017,You may even take valerian root without realize,Culture
Fri Sep 29 01:35:28 +0000 2017,What  actually mean accord science,Culture
Thu Sep 28 19:17:54 +0000 2017,"How /book/book_subject,/media_common/quotation_subject last night ask Well /book/book_subject,/media_common/quotation_subjecttracker I tell exactly",Culture
Thu Sep 28 16:39:18 +0000 2017,"Company,/organization/organizatione position /book/book_subject,/media_common/quotation_subject relate personality /book/book_subject,/media_common/quotation_subjecting fetal position suggest long comfort zone",Culture
Wed Sep 27 15:26:52 +0000 2017,We dig determine ones fact fake,Culture
Wed Sep 27 15:05:05 +0000 2017,"Place,/location/locationeet  make",Culture
Wed Sep 27 01:27:56 +0000 2017,"Research find positive outlook tie directly early morning risers tomorrow /book/book_subject,/media_common/quotation_subject",Culture
Tue Sep 26 01:46:08 +0000 2017,"Early morning  easiest remember come REM Company,/organization/organizationeta Level Company,/organization/organizatione Company,/organization/organizationeta Level use heal",Culture
Mon Sep 25 18:16:37 +0000 2017,"Our /book/book_subject,/media_common/quotation_subjecttracker Monitor feature list Best /book/book_subject,/media_common/quotation_subject Products Learn get best /book/book_subject,/media_common/quotation_subject",Culture
Sun Sep 24 23:08:13 +0000 2017,"Company,/organization/organizatione word /book/book_subject,/media_common/quotation_subject derive Proto-European base Place,/location/locationeb weak relate slack Company,/organization/organization /book/book_subject,/media_common/quotation_subject around first record PhonePhone",Culture
Sat Sep 23 02:25:34 +0000 2017,"tomorrow /book/book_subject,/media_common/quotation_subject",Culture
Fri Sep 22 21:39:18 +0000 2017,"Place,/location/locationmetimes factor daily environment appear  story particular scent sticky situation bark dog",Culture
Thu Sep 21 23:36:37 +0000 2017,"tomorrow /book/book_subject,/media_common/quotation_subject",Culture
Thu Sep 21 21:40:42 +0000 2017,"Lack /book/book_subject,/media_common/quotation_subject cause weight gain two pound week",Culture
Thu Sep 21 00:23:18 +0000 2017,"New /business/product_category,/business/industry,/organization/organization_sector hit market /biology/organism_classification_rank design /business/product_category,/business/industry,/organization/organization_sector plus /book/book_subject,/media_common/quotation_subject tracker comforter pillow amp sheet http",Culture
Wed Sep 20 13:13:18 +0000 2017,"Company,/organization/organizationo tire gym Company,/organization/organizationy workouts without leave /business/product_category,/media_common/quotation_subject excuse fit po",Culture
Wed Sep 20 11:39:05 +0000 2017,"Upgraded /business/product_category,/media_common/quotation_subject amp try new /book/book_subject,/media_common/quotation_subject system Did improve /book/book_subject,/media_common/quotation_subject ad tomorrow",Culture
Tue Sep 19 21:17:03 +0000 2017,"Unboxing /business/product_category,/business/industry,/organization/organization_sector Ca wait share thoughts blog soon tomorrow /book/book_subject,/media_common/quotation_subject http",Culture
Mon Sep 18 21:42:49 +0000 2017,"Company,/organization/organizationose bear blind   involve things emotion sound smell rather sight tomorrow /book/book_subject,/media_common/quotation_subject",Culture
Mon Sep 18 14:33:23 +0000 2017,"If I get enough /book/book_subject,/media_common/quotation_subject I properly function wife mother writer Company,/organization/organizationmorrow",Culture
Mon Sep 18 14:02:41 +0000 2017,We round essential information night sweat get Zz need,Culture
Sun Sep 17 22:51:46 +0000 2017,"Place,/location/locationience get enough /book/book_subject,/media_common/quotation_subject lead risky decision-making",Culture
Sat Sep 16 23:09:30 +0000 2017,"Light exposure even glow number alarm clock cause /book/book_subject,/media_common/quotation_subject disturbance even wake",Culture
Sat Sep 16 16:07:49 +0000 2017,"Company,/organization/organizatione Economic Case Letting Company,/organization/organizationenagers /book/book_subject,/media_common/quotation_subject Little Later",Culture
Fri Sep 15 14:10:42 +0000 2017,"Parasomnia type /book/book_subject,/media_common/quotation_subject disorder make unnatural movements despite a/book/book_subject,/media_common/quotation_subject tomorrow /book/book_subject,/media_common/quotation_subject",Culture
Fri Sep 15 13:59:07 +0000 2017,"A nap work wonder even /book/book_subject,/media_common/quotation_subject deprive",Culture
Thu Sep 14 22:16:56 +0000 2017,"tomorrow /book/book_subject,/media_common/quotation_subject",Culture
Thu Sep 14 00:12:25 +0000 2017,"Company,/organization/organizationmorrow /business/product_category,/business/industry,/organization/organization_sector top choice coil-foam /biology/organism_classification_rank category tomorrow /book/book_subject,/media_common/quotation_subject",Culture
Wed Sep 13 19:54:45 +0000 2017,"/book/book_subject,/media_common/quotation_subject-deprived people score lower test work memory k short-term memory good night rest",Culture
Wed Sep 13 14:23:08 +0000 2017,"Ready peaceful night rather /book/book_subject,/media_common/quotation_subjectless night worry",Culture
Tue Sep 12 19:45:38 +0000 2017,"tomorrow /book/book_subject,/media_common/quotation_subject",Culture
Tue Sep 12 14:16:12 +0000 2017,"You awake straight hours  symptoms /book/book_subject,/media_common/quotation_subject deprivation",Culture
Mon Sep 11 16:37:42 +0000 2017,"I think best thing /book/book_subject,/media_common/quotation_subjecttracker teach aware habit conclude Place,/location/locationelby Wax",Culture
Mon Sep 11 13:09:13 +0000 2017,"ad Place,/location/location excite try new /business/product_category,/business/industry,/organization/organization_sector motherhood mom blogger family fun",Culture
Mon Sep 11 00:27:33 +0000 2017,"/book/book_subject,/media_common/quotation_subjecting With Your Dog Can Give Better Night Rest Mayo Person,/people/persondy",Culture
Sun Sep 10 16:27:22 +0000 2017,"We tend /book/book_subject,/media_common/quotation_subject minutes less per night around full moon tomorrow /book/book_subject,/media_common/quotation_subject",Culture
Sat Sep 09 16:38:29 +0000 2017,"tomorrow /book/book_subject,/media_common/quotation_subject",Culture
Fri Sep 08 15:20:21 +0000 2017,"Hypnotherapist soothe listeners /book/book_subject,/media_common/quotation_subject guide meditations",Culture
Fri Sep 08 14:21:05 +0000 2017,"Our AnatomicalStructure,/book/book_subject,/medicine/anatomical_structure active /book/book_subject,/media_common/quotation_subject In fact part AnatomicalStructure,/book/book_subject,/medicine/anatomical_structure use oxygen glucose a/book/book_subject,/media_common/quotation_subject awake",Culture
Thu Sep 07 23:58:47 +0000 2017,"tomorrow /book/book_subject,/media_common/quotation_subject",Culture
Thu Sep 07 18:30:10 +0000 2017,"You make fall a/book/book_subject,/media_common/quotation_subject We create right condition /book/book_subject,/media_common/quotation_subject mind environment",Culture
Wed Sep 06 23:49:25 +0000 2017,"Company,/organization/organizationese Foods Will Help You /book/book_subject,/media_common/quotation_subject Better Company,/organization/organizationnight",Culture
Wed Sep 06 20:41:06 +0000 2017,"tomorrow /book/book_subject,/media_common/quotation_subject",Culture
Wed Sep 06 00:16:43 +0000 2017,"Company,/organization/organizatione first three hours /book/book_subject,/media_common/quotation_subject deepest stag /book/book_subject,/media_common/quotation_subject Place,/location/locationow Wave /book/book_subject,/media_common/quotation_subject tomorrow /book/book_subject,/media_common/quotation_subject",Culture
Tue Sep 05 21:15:35 +0000 2017,"tomorrow /book/book_subject,/media_common/quotation_subject",Culture
Tue Sep 05 15:58:12 +0000 2017,"Finally go long overdue /business/product_category,/media_common/quotation_subject upgrade Place,/location/locationutout tomorrow /book/book_subject,/media_common/quotation_subject",Culture
Sun Sep 03 01:05:15 +0000 2017,"Company,/organization/organizatione average person four six  night people recall percent",Culture
Sat Sep 02 21:00:15 +0000 2017,"tomorrow /book/book_subject,/media_common/quotation_subject",Culture
Fri Sep 01 22:06:50 +0000 2017,"tomorrow /book/book_subject,/media_common/quotation_subject",Culture
Fri Sep 01 17:08:43 +0000 2017,"A /book/book_subject,/media_common/quotation_subject Physician Reveals Expert Place,/location/locationcrets Better Night Rest via",Culture
Fri Sep 01 01:09:12 +0000 2017,"Only one-half dolphins AnatomicalStructure,/book/book_subject,/medicine/anatomical_structure go /book/book_subject,/media_common/quotation_subject time tomorrow /book/book_subject,/media_common/quotation_subject",Culture
Thu Aug 31 21:10:39 +0000 2017,"tomorrow /book/book_subject,/media_common/quotation_subject",Culture
Thu Aug 31 13:18:03 +0000 2017,"Make /business/product_category,/media_common/quotation_subject smart /business/product_category,/media_common/quotation_subject /book/book_subject,/media_common/quotation_subjecttracker Monitor tomorrow /book/book_subject,/media_common/quotation_subject via",Culture
Wed Aug 30 19:32:17 +0000 2017, websites really start step game Check web goals,Culture
Wed Aug 30 19:30:14 +0000 2017,"tomorrow /book/book_subject,/media_common/quotation_subject",Culture
Wed Aug 30 13:20:31 +0000 2017,"Noises night especially first last hours /book/book_subject,/media_common/quotation_subject disrupt function immune system",Culture
Tue Aug 29 13:38:24 +0000 2017,"You receive free /book/book_subject,/media_common/quotation_subjecttracker coupon code Company,/organization/organizationACK right",Culture
Tue Aug 29 12:36:35 +0000 2017,"tomorrow /book/book_subject,/media_common/quotation_subject",Culture
Sun Aug 27 20:54:42 +0000 2017,A little rearrange change whole energy room fen shut vast shastra,Culture
Sun Aug 27 16:16:30 +0000 2017,"tomorrow /book/book_subject,/media_common/quotation_subject",Culture
Sat Aug 26 21:52:26 +0000 2017,People take cat nap eye open without even know,Culture
Sat Aug 26 15:02:22 +0000 2017,"tomorrow /book/book_subject,/media_common/quotation_subject",Culture
Fri Aug 25 23:18:58 +0000 2017,"About eight percent people /book/book_subject,/media_common/quotation_subject sex get fully conscious",Culture
Fri Aug 25 20:02:30 +0000 2017,"tomorrow /book/book_subject,/media_common/quotation_subject",Culture
Fri Aug 25 17:30:55 +0000 2017,via,Culture
Fri Aug 25 03:03:27 +0000 2017,"An average human spend whole years higher life  tomorrow /book/book_subject,/media_common/quotation_subject",Culture
Thu Aug 24 19:07:29 +0000 2017,"tomorrow /book/book_subject,/media_common/quotation_subject",Culture
Thu Aug 24 02:08:41 +0000 2017,"If elephant /book/book_subject,/media_common/quotation_subject stand  non-REM /book/book_subject,/media_common/quotation_subject Elephants lie REM",Culture
Thu Aug 24 00:22:56 +0000 2017,"How Company,/organization/organization Company,/organization/organizationrive In A Relationship When You On A Different /book/book_subject,/media_common/quotation_subject Place,/location/locationhedule Company,/organization/organizationan Your Partner",Culture
Wed Aug 23 20:56:08 +0000 2017,"tomorrow /book/book_subject,/media_common/quotation_subject",Culture
Tue Aug 22 20:48:51 +0000 2017,people  entirely black white,Culture
Tue Aug 22 16:05:57 +0000 2017,We experiment mugwort lucid  Here need know,Culture
Tue Aug 22 02:24:52 +0000 2017,"How /book/book_subject,/media_common/quotation_subject help us remember forget time via",Culture
Mon Aug 21 20:25:09 +0000 2017,Beautiful digital  Love use subtle gradients clean aesthetic go,Culture
Mon Aug 21 18:18:38 +0000 2017,"It think population /book/book_subject,/media_common/quotation_subjectwalkers tomorrow /book/book_subject,/media_common/quotation_subject",Culture
Mon Aug 21 15:20:15 +0000 2017,"tomorrow /book/book_subject,/media_common/quotation_subject",Culture
Sun Aug 20 18:21:04 +0000 2017,"Ideally fall a/book/book_subject,/media_common/quotation_subject night take Phone-Phone minutes tomorrow /book/book_subject,/media_common/quotation_subject",Culture
Sun Aug 20 13:58:08 +0000 2017,"Company,/organization/organizationis often actually wash /business/product_category,/media_common/quotation_subject sunday motivation",Culture
Sun Aug 20 03:44:31 +0000 2017,"My /business/product_category,/media_common/quotation_subject two things two things great /book/book_subject,/media_common/quotation_subject",Culture
Sun Aug 20 00:30:03 +0000 2017,"tomorrow /book/book_subject,/media_common/quotation_subject",Culture
Sat Aug 19 17:20:04 +0000 2017,"Company,/organization/organizatione /book/book_subject,/media_common/quotation_subjecting Brain Can Learn Company,/organization/organizatione Place,/location/locationientist Magazines",Culture
Sat Aug 19 14:35:07 +0000 2017,"Dynia state find hard get /business/product_category,/media_common/quotation_subject morning tomorrow /book/book_subject,/media_common/quotation_subject",Culture
Sat Aug 19 02:45:33 +0000 2017,"tomorrow /book/book_subject,/media_common/quotation_subject",Culture
Fri Aug 18 23:31:50 +0000 2017,"It might time rethink weekend plan Binge-Watching Company,/organization/organization Is Linked Company,/organization/organization Poorer /book/book_subject,/media_common/quotation_subject And Insomnia via",Culture
Fri Aug 18 19:32:40 +0000 2017,"Humans spend 1/3 life /book/book_subject,/media_common/quotation_subject tomorrow /book/book_subject,/media_common/quotation_subject",Culture
Fri Aug 18 11:42:53 +0000 2017,"Waking With Jaw Pain You May Place,/location/locationffer From /book/book_subject,/media_common/quotation_subject Bruxism",Culture
Thu Aug 17 23:59:27 +0000 2017,"Within minutes wake  forget tomorrow /book/book_subject,/media_common/quotation_subject",Culture
Thu Aug 17 19:53:00 +0000 2017,In Duocore Ventilator pillow condition regulate temperature absorb release thermal end,Culture
Tue Aug 15 18:29:58 +0000 2017,"Find bore America good night /book/book_subject,/media_common/quotation_subject one podcast time",Culture
Thu Aug 10 18:33:19 +0000 2017,No pop-up yet hopefully soon Feel free give us call 800-2Phone-90Phone arrange,Culture
Tue Aug 08 16:48:49 +0000 2017,"Cognitive performance productivity health benefit directly associate get /book/book_subject,/media_common/quotation_subject night",Culture
Mon Aug 07 14:29:52 +0000 2017,Eating enough plant keep energize throughout busy days Read,Culture
Thu Aug 03 19:39:58 +0000 2017,"MA fighter Michelle Watterson like get 7-8 hours /book/book_subject,/media_common/quotation_subject night Find",Culture
Wed Aug 02 20:30:04 +0000 2017,All smell,Culture
Tue Aug 01 16:09:59 +0000 2017,"Place,/location/locationnglass designers amp DJ start morning write grateful More duos",Culture
Mon Jul 31 19:01:28 +0000 2017,Wake smell coffee substitute,Culture
Fri Jul 28 20:56:45 +0000 2017,Check friends relax weekend getaway,Culture
Fri Jul 28 18:07:33 +0000 2017,We bet like land page Good job design inspiration,Culture
Fri Jul 28 16:14:46 +0000 2017,Avoid hangover weekend science-backed guide As moral hangover,Culture
Fri Jul 28 13:46:11 +0000 2017,"pima RRO bio creator drink water  get /book/book_subject,/media_common/quotation_subject night",Culture
Wed Jul 26 20:23:18 +0000 2017,Healthy live go beyond diet exercise Discover fourth pillar modern wellness,Culture
Wed Jul 26 14:04:33 +0000 2017,"Putting good outfit get lifestyle writer /business/product_category,/media_common/quotation_subject morning",Culture
Wed Jul 26 13:45:28 +0000 2017,live,Culture
Tue Jul 25 18:03:10 +0000 2017,When I wake morning I want feel positive like bloat Read pima RRO bio,Culture
Fri Jul 21 13:58:31 +0000 2017,"Person,/people/person talk  help /book/book_subject,/media_common/quotation_subject night",Culture
Wed Jul 19 19:44:55 +0000 2017,"Industry Giant http://dbpedia.org/ontology/Company,http://dbpedia.org/ontology/Organisation,http://dbpedia.org/ontology/Agent Place,/location/locationmmons Behind Company,/organization/organizationmorrow /book/book_subject,/media_common/quotation_subject",Culture
Wed Jul 19 14:05:52 +0000 2017,"I think super important keep /business/product_category,/media_common/quotation_subject space sacred Hannah Cheng",Culture
Wed Jul 19 13:43:44 +0000 2017,Excited share segment air last night,Culture
Tue Jul 18 14:00:12 +0000 2017,"/book/book_subject,/media_common/quotation_subject give something look forward http://dbpedia.org/ontology/Company,/organization/organizationlevisionShow,http://dbpedia.org/ontology/Work Place,/location/locationott Conant",Culture
Sat Jul 15 21:09:17 +0000 2017,"When I nice /book/book_subject,/media_common/quotation_subject I feel like I anything",Culture
Fri Jul 14 13:48:13 +0000 2017,"If I get Duration /book/book_subject,/media_common/quotation_subject I cranky",Culture
Thu Jul 13 14:05:18 +0000 2017,"I /book/book_subject,/media_common/quotation_subject function I need like great /business/product_category,/media_common/quotation_subject ",Culture
Wed Jul 12 16:58:46 +0000 2017,"I know I actually follow rule I /book/book_subject,/media_common/quotation_subject",Culture
Tue Jul 11 15:16:28 +0000 2017,"Lose /book/book_subject,/media_common/quotation_subject",Culture
Tue Jul 11 13:55:27 +0000 2017,"Discover perfect /book/book_subject,/media_common/quotation_subject environment stimulate sense",Culture
Thu Jul 06 13:48:12 +0000 2017,"Our  /book/book_subject,/media_common/quotation_subject system help rest easy",Culture
Wed Jul 05 15:19:21 +0000 2017,"Company,/organization/organizationansform /book/book_subject,/media_common/quotation_subject ",Culture
Sat Jul 01 23:04:47 +0000 2017,"Do /book/book_subject,/media_common/quotation_subject forget New  sin-Madison",Culture
Fri Jun 30 20:01:11 +0000 2017,"Our smart /book/book_subject,/media_common/quotation_subject system design get http://dbpedia.org/ontology/Disease ready best tomorrow",Culture
Fri Jun 30 14:07:12 +0000 2017,"/book/book_subject,/media_common/quotation_subject",Culture
Thu Jun 29 20:11:42 +0000 2017,"Company,/organization/organizatione city never /book/book_subject,/media_common/quotation_subject might finally get rest Company,/organization/organizationll order  challenge",Culture
Thu Jun 29 18:26:19 +0000 2017,"Count less Species,Eukaryote,Animal,Mammal,/food/ingredient,/film/film_subject,/food/food,/book/book_subject,/biology/animal,/biology/source_organism,/visual_art/art_subject,/fictional_universe/character_species,/food/cheese_milk_source,/biology/domesticated_animal,/biology/organism_classification get /book/book_subject,/media_common/quotation_subject",Culture
Thu Jun 29 17:25:00 +0000 2017,"Company,/organization/organizatione new /business/product_category,/business/industry,/organization/organization_sector company sell /business/product_category,/media_common/quotation_subject",Culture
Thu Jun 29 17:24:05 +0000 2017,"http://dbpedia.org/ontology/Company,http://dbpedia.org/ontology/Organisation,http://dbpedia.org/ontology/Agent start new online /business/product_category,/business/industry,/organization/organization_sector company call Company,/organization/organizationmorrow /book/book_subject,/media_common/quotation_subject It include /book/book_subject,/media_common/quotation_subject app",Culture
Thu Jun 29 13:39:41 +0000 2017,"/book/book_subject,/media_common/quotation_subject root tomorrow /fictional_universe/character_species,/book/book_subject,/exhibitions/exhibition_subject,/biology/organism_classification,/visual_art/art_subject",Culture
Wed Jun 28 21:16:39 +0000 2017,"Company,/organization/organizationmorrow tame fickle beast /book/book_subject,/media_common/quotation_subject",Culture
Wed Jun 28 20:26:26 +0000 2017,"http://dbpedia.org/ontology/Company,http://dbpedia.org/ontology/Organisation,http://dbpedia.org/ontology/Agent Place,/location/locationmmons Bedding enter null market launch",Culture
Wed Jun 28 15:30:45 +0000 2017,"recently launch revolutionize good night /book/book_subject,/media_common/quotation_subject mean tech",Culture
Tue Jun 27 19:25:43 +0000 2017,"Company,/organization/organizationis /business/product_category,/media_common/quotation_subject startup use century research create suite products optimize perfect night /book/book_subject,/media_common/quotation_subject http //…",Culture
Tue Jun 27 19:25:08 +0000 2017,"We proud part excite new /internet/website_category,/organization/organization_sector,/business/industry",Culture
Tue Jun 27 19:18:31 +0000 2017,"Company,/organization/organizationis AnatomicalStructure,/book/book_subject,/medicine/anatomical_structure /book/book_subject,/media_common/quotation_subject",Culture
Tue Jun 27 19:08:32 +0000 2017," giant jump VCompany,/organization/organizationC space challenge",Culture
Tue Jun 27 15:37:00 +0000 2017,"Check say products optimize perfect night /book/book_subject,/media_common/quotation_subject",Culture
